%!PS-Adobe-3.0
%%BoundingBox: 38 24 574 768
%%Title: Listing.ps
%%For: Wesley Mackey
%%Creator: GNU Enscript 1.6.6
%%CreationDate: Mon Jan 22 14:07:55 2018
%%Orientation: Portrait
%%Pages: (atend)
%%DocumentMedia: Letter 612 792 0 () ()
%%DocumentNeededResources: (atend)
%%EndComments
%%BeginProlog
%%BeginResource: procset Enscript-Prolog 1.6 6
%
% Procedures.
%

/_S {	% save current state
  /_s save def
} def
/_R {	% restore from saved state
  _s restore
} def

/S {	% showpage protecting gstate
  gsave
  showpage
  grestore
} bind def

/MF {	% fontname newfontname -> -	make a new encoded font
  /newfontname exch def
  /fontname exch def

  /fontdict fontname findfont def
  /newfont fontdict maxlength dict def

  fontdict {
    exch
    dup /FID eq {
      % skip FID pair
      pop pop
    } {
      % copy to the new font dictionary
      exch newfont 3 1 roll put
    } ifelse
  } forall

  newfont /FontName newfontname put

  % insert only valid encoding vectors
  encoding_vector length 256 eq {
    newfont /Encoding encoding_vector put
  } if

  newfontname newfont definefont pop
} def

/MF_PS { % fontname newfontname -> -	make a new font preserving its enc
  /newfontname exch def
  /fontname exch def

  /fontdict fontname findfont def
  /newfont fontdict maxlength dict def

  fontdict {
    exch
    dup /FID eq {
      % skip FID pair
      pop pop
    } {
      % copy to the new font dictionary
      exch newfont 3 1 roll put
    } ifelse
  } forall

  newfont /FontName newfontname put

  newfontname newfont definefont pop
} def

/SF { % fontname width height -> -	set a new font
  /height exch def
  /width exch def

  findfont
  [width 0 0 height 0 0] makefont setfont
} def

/SUF { % fontname width height -> -	set a new user font
  /height exch def
  /width exch def

  /F-gs-user-font MF
  /F-gs-user-font width height SF
} def

/SUF_PS { % fontname width height -> -	set a new user font preserving its enc
  /height exch def
  /width exch def

  /F-gs-user-font MF_PS
  /F-gs-user-font width height SF
} def

/M {moveto} bind def
/s {show} bind def

/Box {	% x y w h -> -			define box path
  /d_h exch def /d_w exch def /d_y exch def /d_x exch def
  d_x d_y  moveto
  d_w 0 rlineto
  0 d_h rlineto
  d_w neg 0 rlineto
  closepath
} def

/bgs {	% x y height blskip gray str -> -	show string with bg color
  /str exch def
  /gray exch def
  /blskip exch def
  /height exch def
  /y exch def
  /x exch def

  gsave
    x y blskip sub str stringwidth pop height Box
    gray setgray
    fill
  grestore
  x y M str s
} def

/bgcs { % x y height blskip red green blue str -> -  show string with bg color
  /str exch def
  /blue exch def
  /green exch def
  /red exch def
  /blskip exch def
  /height exch def
  /y exch def
  /x exch def

  gsave
    x y blskip sub str stringwidth pop height Box
    red green blue setrgbcolor
    fill
  grestore
  x y M str s
} def

% Highlight bars.
/highlight_bars {	% nlines lineheight output_y_margin gray -> -
  gsave
    setgray
    /ymarg exch def
    /lineheight exch def
    /nlines exch def

    % This 2 is just a magic number to sync highlight lines to text.
    0 d_header_y ymarg sub 2 sub translate

    /cw d_output_w cols div def
    /nrows d_output_h ymarg 2 mul sub lineheight div cvi def

    % for each column
    0 1 cols 1 sub {
      cw mul /xp exch def

      % for each rows
      0 1 nrows 1 sub {
        /rn exch def
        rn lineheight mul neg /yp exch def
        rn nlines idiv 2 mod 0 eq {
	  % Draw highlight bar.  4 is just a magic indentation.
	  xp 4 add yp cw 8 sub lineheight neg Box fill
	} if
      } for
    } for

  grestore
} def

% Line highlight bar.
/line_highlight {	% x y width height gray -> -
  gsave
    /gray exch def
    Box gray setgray fill
  grestore
} def

% Column separator lines.
/column_lines {
  gsave
    .1 setlinewidth
    0 d_footer_h translate
    /cw d_output_w cols div def
    1 1 cols 1 sub {
      cw mul 0 moveto
      0 d_output_h rlineto stroke
    } for
  grestore
} def

% Column borders.
/column_borders {
  gsave
    .1 setlinewidth
    0 d_footer_h moveto
    0 d_output_h rlineto
    d_output_w 0 rlineto
    0 d_output_h neg rlineto
    closepath stroke
  grestore
} def

% Do the actual underlay drawing
/draw_underlay {
  ul_style 0 eq {
    ul_str true charpath stroke
  } {
    ul_str show
  } ifelse
} def

% Underlay
/underlay {	% - -> -
  gsave
    0 d_page_h translate
    d_page_h neg d_page_w atan rotate

    ul_gray setgray
    ul_font setfont
    /dw d_page_h dup mul d_page_w dup mul add sqrt def
    ul_str stringwidth pop dw exch sub 2 div ul_h_ptsize -2 div moveto
    draw_underlay
  grestore
} def

/user_underlay {	% - -> -
  gsave
    ul_x ul_y translate
    ul_angle rotate
    ul_gray setgray
    ul_font setfont
    0 0 ul_h_ptsize 2 div sub moveto
    draw_underlay
  grestore
} def

% Page prefeed
/page_prefeed {		% bool -> -
  statusdict /prefeed known {
    statusdict exch /prefeed exch put
  } {
    pop
  } ifelse
} def

% Wrapped line markers
/wrapped_line_mark {	% x y charwith charheight type -> -
  /type exch def
  /h exch def
  /w exch def
  /y exch def
  /x exch def

  type 2 eq {
    % Black boxes (like TeX does)
    gsave
      0 setlinewidth
      x w 4 div add y M
      0 h rlineto w 2 div 0 rlineto 0 h neg rlineto
      closepath fill
    grestore
  } {
    type 3 eq {
      % Small arrows
      gsave
        .2 setlinewidth
        x w 2 div add y h 2 div add M
        w 4 div 0 rlineto
        x w 4 div add y lineto stroke

        x w 4 div add w 8 div add y h 4 div add M
        x w 4 div add y lineto
	w 4 div h 8 div rlineto stroke
      grestore
    } {
      % do nothing
    } ifelse
  } ifelse
} def

% EPSF import.

/BeginEPSF {
  /b4_Inc_state save def    		% Save state for cleanup
  /dict_count countdictstack def	% Count objects on dict stack
  /op_count count 1 sub def		% Count objects on operand stack
  userdict begin
  /showpage { } def
  0 setgray 0 setlinecap
  1 setlinewidth 0 setlinejoin
  10 setmiterlimit [ ] 0 setdash newpath
  /languagelevel where {
    pop languagelevel
    1 ne {
      false setstrokeadjust false setoverprint
    } if
  } if
} bind def

/EndEPSF {
  count op_count sub { pos } repeat	% Clean up stacks
  countdictstack dict_count sub { end } repeat
  b4_Inc_state restore
} bind def

% Check PostScript language level.
/languagelevel where {
  pop /gs_languagelevel languagelevel def
} {
  /gs_languagelevel 1 def
} ifelse
%%EndResource
%%BeginResource: procset Enscript-Encoding-88591 1.6 6
/encoding_vector [
/.notdef      	/.notdef      	/.notdef      	/.notdef      	
/.notdef      	/.notdef      	/.notdef      	/.notdef      	
/.notdef      	/.notdef      	/.notdef      	/.notdef      	
/.notdef      	/.notdef      	/.notdef      	/.notdef      	
/.notdef      	/.notdef      	/.notdef      	/.notdef      	
/.notdef      	/.notdef      	/.notdef      	/.notdef      	
/.notdef      	/.notdef      	/.notdef      	/.notdef      	
/.notdef      	/.notdef      	/.notdef      	/.notdef      	
/space        	/exclam       	/quotedbl     	/numbersign   	
/dollar       	/percent      	/ampersand    	/quoteright   	
/parenleft    	/parenright   	/asterisk     	/plus         	
/comma        	/hyphen       	/period       	/slash        	
/zero         	/one          	/two          	/three        	
/four         	/five         	/six          	/seven        	
/eight        	/nine         	/colon        	/semicolon    	
/less         	/equal        	/greater      	/question     	
/at           	/A            	/B            	/C            	
/D            	/E            	/F            	/G            	
/H            	/I            	/J            	/K            	
/L            	/M            	/N            	/O            	
/P            	/Q            	/R            	/S            	
/T            	/U            	/V            	/W            	
/X            	/Y            	/Z            	/bracketleft  	
/backslash    	/bracketright 	/asciicircum  	/underscore   	
/quoteleft    	/a            	/b            	/c            	
/d            	/e            	/f            	/g            	
/h            	/i            	/j            	/k            	
/l            	/m            	/n            	/o            	
/p            	/q            	/r            	/s            	
/t            	/u            	/v            	/w            	
/x            	/y            	/z            	/braceleft    	
/bar          	/braceright   	/tilde        	/.notdef      	
/.notdef      	/.notdef      	/.notdef      	/.notdef      	
/.notdef      	/.notdef      	/.notdef      	/.notdef      	
/.notdef      	/.notdef      	/.notdef      	/.notdef      	
/.notdef      	/.notdef      	/.notdef      	/.notdef      	
/.notdef      	/.notdef      	/.notdef      	/.notdef      	
/.notdef      	/.notdef      	/.notdef      	/.notdef      	
/.notdef      	/.notdef      	/.notdef      	/.notdef      	
/.notdef      	/.notdef      	/.notdef      	/.notdef      	
/space        	/exclamdown   	/cent         	/sterling     	
/currency     	/yen          	/brokenbar    	/section      	
/dieresis     	/copyright    	/ordfeminine  	/guillemotleft	
/logicalnot   	/hyphen       	/registered   	/macron       	
/degree       	/plusminus    	/twosuperior  	/threesuperior	
/acute        	/mu           	/paragraph    	/bullet       	
/cedilla      	/onesuperior  	/ordmasculine 	/guillemotright	
/onequarter   	/onehalf      	/threequarters	/questiondown 	
/Agrave       	/Aacute       	/Acircumflex  	/Atilde       	
/Adieresis    	/Aring        	/AE           	/Ccedilla     	
/Egrave       	/Eacute       	/Ecircumflex  	/Edieresis    	
/Igrave       	/Iacute       	/Icircumflex  	/Idieresis    	
/Eth          	/Ntilde       	/Ograve       	/Oacute       	
/Ocircumflex  	/Otilde       	/Odieresis    	/multiply     	
/Oslash       	/Ugrave       	/Uacute       	/Ucircumflex  	
/Udieresis    	/Yacute       	/Thorn        	/germandbls   	
/agrave       	/aacute       	/acircumflex  	/atilde       	
/adieresis    	/aring        	/ae           	/ccedilla     	
/egrave       	/eacute       	/ecircumflex  	/edieresis    	
/igrave       	/iacute       	/icircumflex  	/idieresis    	
/eth          	/ntilde       	/ograve       	/oacute       	
/ocircumflex  	/otilde       	/odieresis    	/divide       	
/oslash       	/ugrave       	/uacute       	/ucircumflex  	
/udieresis    	/yacute       	/thorn        	/ydieresis    	
] def
%%EndResource
%%EndProlog
%%BeginSetup
%%IncludeResource: font Courier-Bold
/HFpt_w 10 def
/HFpt_h 10 def
/Courier-Bold /HF-gs-font MF
/HF /HF-gs-font findfont [HFpt_w 0 0 HFpt_h 0 0] makefont def
/Courier-Bold /F-gs-font MF
/F-gs-font 11 11 SF
/#copies 1 def
% Pagedevice definitions:
gs_languagelevel 1 gt {
  <<
    /PageSize [612 792] 
  >> setpagedevice
} if
%%BeginResource: procset Enscript-Header-enscript-mycolor 1.6 6
%%IncludeResource: font Times-Bold
%%IncludeResource: font Times-Roman

% Fonts.
/Times-Bold /HeaderFont-Bold MF
/HeaderDateF /HeaderFont-Bold findfont 12 scalefont def

/Times-Roman /HeaderFont-Times MF
/HeaderHDRF /HeaderFont-Times findfont 14 scalefont def

/HeaderPageNumF /Helvetica-Bold findfont 28.8 scalefont def
/HeaderPageCountF /Helvetica-Bold findfont 18 scalefont def

/do_header {	% print enscript header
  gsave
    d_header_x d_header_y translate

    /dhw d_header_w 4 sub def

    /linecolor {0 0 0 setrgbcolor} bind def  % line color
    /txcolor   {0 0 0 setrgbcolor} bind def  % text color
    /fncolor   {0 0 0 setrgbcolor} bind def  % filename line color

    .5 setlinewidth

    % line across bottom of the header area
    linecolor
    0 0 moveto dhw 0 lineto

    % side boxes
    /sbw d_header_h 2 mul def	% side box width

    % left side box
    0 0 sbw d_header_h Box
    linecolor
    stroke

    % date/time in left box
    txcolor
    HeaderDateF setfont
    moddatestr dup stringwidth pop sbw exch sub 2 div
    d_header_h 2 div 2 add moveto show
    modtimestr dup stringwidth pop sbw exch sub 2 div
    d_header_h 5 div moveto show

    % right side box
    dhw sbw sub 0 sbw d_header_h Box
    linecolor
    stroke

    % get width of pagecount
    HeaderPageCountF setfont
    pagecountstr stringwidth pop

    txcolor
    HeaderPageNumF setfont
    pagenumstr stringwidth pop add  % add to width of pagecount
    sbw exch sub 2 div dhw sbw sub add
    d_header_h .2 mul moveto

    pagenumstr show

    HeaderPageCountF setfont
    pagecountstr show

    % filename
    fncolor
    HeaderHDRF setfont
    dhw fname stringwidth pop sub 2 div d_header_h 8 div moveto
    fname show

    % user supplied header string.
    user_header_p {
      /h d_header_h 8 div 5 mul def

      % HACK around a bug in enscript 1.6.0:
      % for some reason this is getting set to "(null)" and
      %
      user_header_center_str (\(null\)) eq {
        /user_header_center_str () def
      } if

      % Implement strict enscript compatibility.
      user_header_center_str () eq user_header_right_str () eq and {
        dhw user_header_left_str stringwidth pop sub 2 div
        h moveto user_header_left_str show
      } {
        sbw 5 add h moveto user_header_left_str show

        dhw user_header_center_str stringwidth pop sub 2 div
        h moveto user_header_center_str show

	dhw sbw sub 5 sub user_header_right_str stringwidth pop
	sub h moveto user_header_right_str show
      } ifelse
    } if

  grestore
} bind def
%%EndResource
/d_page_w 536 def
/d_page_h 744 def
/d_header_x 0 def
/d_header_y 708 def
/d_header_w 536 def
/d_header_h 36 def
/d_footer_x 0 def
/d_footer_y 0 def
/d_footer_w 536 def
/d_footer_h 0 def
/d_output_w 536 def
/d_output_h 708 def
/cols 1 def
%%EndSetup
%%Page: (1) 1
%%BeginPageSetup
_S
38 24 translate
/pagenum 1 def
/fname (string_set.h) def
/fdir (.) def
/ftail (string_set.h) def
% User defined strings:
/pagenumstr (1) def
/moddatestr (01/22/18) def
/pagecountstr (/1) def
/modtimestr (14:07:55) def
/user_header_p true def
/user_header_left_str ($cmps104a-wm/Assignments/code/string_set/) def
/user_header_center_str () def
/user_header_right_str () def
/user_footer_p false def
%%EndPageSetup
column_borders
do_header
32.4 694 M (1:) s
52.2 694 M
(// $Id: string_set.h,v 1.2 2016-08-18 15:13:48-07 - - $) s
32.4 682 M (2:) s
32.4 670 M (3:) s
52.2 670 M
(#ifndef __STRING_SET__) s
32.4 658 M (4:) s
52.2 658 M
(#define __STRING_SET__) s
32.4 646 M (5:) s
32.4 634 M (6:) s
52.2 634 M
(#include <string>) s
32.4 622 M (7:) s
52.2 622 M
(#include <unordered_set>) s
32.4 610 M (8:) s
52.2 610 M
(using namespace std;) s
32.4 598 M (9:) s
25.8 586 M (10:) s
52.2 586 M
(#include <stdio.h>) s
25.8 574 M (11:) s
25.8 562 M (12:) s
52.2 562 M
(struct string_set {) s
25.8 550 M (13:) s
52.2 550 M
(   string_set\(\);) s
25.8 538 M (14:) s
52.2 538 M
(   static unordered_set<string> set;) s
25.8 526 M (15:) s
52.2 526 M
(   static const string* intern \(const char*\);) s
25.8 514 M (16:) s
52.2 514 M
(   static void dump \(FILE*\);) s
25.8 502 M (17:) s
52.2 502 M
(};) s
25.8 490 M (18:) s
25.8 478 M (19:) s
52.2 478 M
(#endif) s
25.8 466 M (20:) s
_R
S
%%Page: (1) 2
%%BeginPageSetup
_S
38 24 translate
/pagenum 1 def
/fname (string_set.cpp) def
/fdir (.) def
/ftail (string_set.cpp) def
% User defined strings:
/pagenumstr (1) def
/moddatestr (01/22/18) def
/pagecountstr (/1) def
/modtimestr (14:07:55) def
/user_header_p true def
/user_header_left_str ($cmps104a-wm/Assignments/code/string_set/) def
/user_header_center_str () def
/user_header_right_str () def
/user_footer_p false def
%%EndPageSetup
column_borders
do_header
32.4 694 M (1:) s
52.2 694 M
(// $Id: string_set.cpp,v 1.5 2017-10-10 16:02:40-07 - - $) s
32.4 682 M (2:) s
32.4 670 M (3:) s
52.2 670 M
(#include <string>) s
32.4 658 M (4:) s
52.2 658 M
(#include <unordered_set>) s
32.4 646 M (5:) s
52.2 646 M
(using namespace std;) s
32.4 634 M (6:) s
32.4 622 M (7:) s
52.2 622 M
(#include "string_set.h") s
32.4 610 M (8:) s
32.4 598 M (9:) s
52.2 598 M
(unordered_set<string> string_set::set;) s
25.8 586 M (10:) s
25.8 574 M (11:) s
52.2 574 M
(string_set::string_set\(\) {) s
25.8 562 M (12:) s
52.2 562 M
(   set.max_load_factor \(0.5\);) s
25.8 550 M (13:) s
52.2 550 M
(}) s
25.8 538 M (14:) s
25.8 526 M (15:) s
52.2 526 M
(string_set set;) s
25.8 514 M (16:) s
25.8 502 M (17:) s
52.2 502 M
(const string* string_set::intern \(const char* string\) {) s
25.8 490 M (18:) s
52.2 490 M
(   auto handle = set.insert \(string\);) s
25.8 478 M (19:) s
52.2 478 M
(   return &*handle.first;) s
25.8 466 M (20:) s
52.2 466 M
(}) s
25.8 454 M (21:) s
25.8 442 M (22:) s
52.2 442 M
(void string_set::dump \(FILE* out\) {) s
25.8 430 M (23:) s
52.2 430 M
(   static unordered_set<string>::hasher hash_fn) s
25.8 418 M (24:) s
52.2 418 M
(               = string_set::set.hash_function\(\);) s
25.8 406 M (25:) s
52.2 406 M
(   size_t max_bucket_size = 0;) s
25.8 394 M (26:) s
52.2 394 M
(   for \(size_t bucket = 0; bucket < set.bucket_count\(\); ++bucket\) {) s
25.8 382 M (27:) s
52.2 382 M
(      bool need_index = true;) s
25.8 370 M (28:) s
52.2 370 M
(      size_t curr_size = set.bucket_size \(bucket\);) s
25.8 358 M (29:) s
52.2 358 M
(      if \(max_bucket_size < curr_size\) max_bucket_size = curr_size;) s
25.8 346 M (30:) s
52.2 346 M
(      for \(auto itor = set.cbegin \(bucket\);) s
25.8 334 M (31:) s
52.2 334 M
(           itor != set.cend \(bucket\); ++itor\) {) s
25.8 322 M (32:) s
52.2 322 M
(         if \(need_index\) fprintf \(out, "string_set[%4zu]: ", bucket\);) s
25.8 310 M (33:) s
52.2 310 M
(                    else fprintf \(out, "           %4s   ", ""\);) s
25.8 298 M (34:) s
52.2 298 M
(         need_index = false;) s
25.8 286 M (35:) s
52.2 286 M
(         const string* str = &*itor;) s
25.8 274 M (36:) s
52.2 274 M
(         fprintf \(out, "%22zu %p->\\"%s\\"\\n", hash_fn\(*str\),) s
25.8 262 M (37:) s
52.2 262 M
(                  str, str->c_str\(\)\);) s
25.8 250 M (38:) s
52.2 250 M
(      }) s
25.8 238 M (39:) s
52.2 238 M
(   }) s
25.8 226 M (40:) s
52.2 226 M
(   fprintf \(out, "load_factor = %.3f\\n", set.load_factor\(\)\);) s
25.8 214 M (41:) s
52.2 214 M
(   fprintf \(out, "bucket_count = %zu\\n", set.bucket_count\(\)\);) s
25.8 202 M (42:) s
52.2 202 M
(   fprintf \(out, "max_bucket_size = %zu\\n", max_bucket_size\);) s
25.8 190 M (43:) s
52.2 190 M
(}) s
25.8 178 M (44:) s
_R
S
%%Page: (1) 3
%%BeginPageSetup
_S
38 24 translate
/pagenum 1 def
/fname (main.cpp) def
/fdir (.) def
/ftail (main.cpp) def
% User defined strings:
/pagenumstr (1) def
/moddatestr (01/22/18) def
/pagecountstr (/1) def
/modtimestr (14:07:55) def
/user_header_p true def
/user_header_left_str ($cmps104a-wm/Assignments/code/string_set/) def
/user_header_center_str () def
/user_header_right_str () def
/user_footer_p false def
%%EndPageSetup
column_borders
do_header
32.4 694 M (1:) s
52.2 694 M
(// $Id: main.cpp,v 1.2 2016-08-18 15:13:48-07 - - $) s
32.4 682 M (2:) s
32.4 670 M (3:) s
52.2 670 M
(#include <string>) s
32.4 658 M (4:) s
52.2 658 M
(using namespace std;) s
32.4 646 M (5:) s
32.4 634 M (6:) s
52.2 634 M
(#include <assert.h>) s
32.4 622 M (7:) s
52.2 622 M
(#include <stdio.h>) s
32.4 610 M (8:) s
52.2 610 M
(#include <stdlib.h>) s
32.4 598 M (9:) s
52.2 598 M
(#include <string.h>) s
25.8 586 M (10:) s
25.8 574 M (11:) s
52.2 574 M
(#include "string_set.h") s
25.8 562 M (12:) s
25.8 550 M (13:) s
52.2 550 M
(int main \(int argc, char** argv\) {) s
25.8 538 M (14:) s
52.2 538 M
(   for \(int i = 1; i < argc; ++i\) {) s
25.8 526 M (15:) s
52.2 526 M
(      const string* str = string_set::intern \(argv[i]\);) s
25.8 514 M (16:) s
52.2 514 M
(      printf \("intern \(\\"%s\\"\) returned %p->\\"%s\\"\\n",) s
25.8 502 M (17:) s
52.2 502 M
(              argv[i], str, str->c_str\(\)\);) s
25.8 490 M (18:) s
52.2 490 M
(   }) s
25.8 478 M (19:) s
52.2 478 M
(   string_set::dump \(stdout\);) s
25.8 466 M (20:) s
52.2 466 M
(   return EXIT_SUCCESS;) s
25.8 454 M (21:) s
52.2 454 M
(}) s
25.8 442 M (22:) s
_R
S
%%Page: (1) 4
%%BeginPageSetup
_S
38 24 translate
/pagenum 1 def
/fname (Makefile) def
/fdir (.) def
/ftail (Makefile) def
% User defined strings:
/pagenumstr (1) def
/moddatestr (01/22/18) def
/pagecountstr (/1) def
/modtimestr (14:07:55) def
/user_header_p true def
/user_header_left_str ($cmps104a-wm/Assignments/code/string_set/) def
/user_header_center_str () def
/user_header_right_str () def
/user_footer_p false def
%%EndPageSetup
column_borders
do_header
32.4 694 M (1:) s
52.2 694 M
(# $Id: Makefile,v 1.5 2018-01-22 14:07:55-08 - - $) s
32.4 682 M (2:) s
32.4 670 M (3:) s
52.2 670 M
(COMPILECPP  = g++ -std=gnu++17 -g -O0 -Wall -Wextra -Wold-style-cast) s
32.4 658 M (4:) s
52.2 658 M
(MAKEDEPCPP  = g++ -std=gnu++17 -MM) s
32.4 646 M (5:) s
32.4 634 M (6:) s
52.2 634 M
(MKFILE   = Makefile) s
32.4 622 M (7:) s
52.2 622 M
(DEPFILE  = Makefile.dep) s
32.4 610 M (8:) s
52.2 610 M
(SOURCES  = string_set.cpp main.cpp) s
32.4 598 M (9:) s
52.2 598 M
(HEADERS  = string_set.h) s
25.8 586 M (10:) s
52.2 586 M
(OBJECTS  = ${SOURCES:.cpp=.o}) s
25.8 574 M (11:) s
52.2 574 M
(EXECBIN  = test_string_set) s
25.8 562 M (12:) s
52.2 562 M
(SRCFILES = ${HEADERS} ${SOURCES} ${MKFILE}) s
25.8 550 M (13:) s
25.8 538 M (14:) s
52.2 538 M
(all : ${EXECBIN}) s
25.8 526 M (15:) s
25.8 514 M (16:) s
52.2 514 M
(${EXECBIN} : ${OBJECTS}) s
25.8 502 M (17:) s
52.2 502 M
(        ${COMPILECPP} ${OBJECTS} -o ${EXECBIN}) s
25.8 490 M (18:) s
25.8 478 M (19:) s
52.2 478 M
(%.o : %.cpp) s
25.8 466 M (20:) s
52.2 466 M
(        ${COMPILECPP} -c $<) s
25.8 454 M (21:) s
25.8 442 M (22:) s
52.2 442 M
(ci :) s
25.8 430 M (23:) s
52.2 430 M
(        cid + ${SRCFILES}) s
25.8 418 M (24:) s
25.8 406 M (25:) s
52.2 406 M
(clean :) s
25.8 394 M (26:) s
52.2 394 M
(        -rm ${OBJECTS} ${DEPFILE}) s
25.8 382 M (27:) s
25.8 370 M (28:) s
52.2 370 M
(spotless : clean) s
25.8 358 M (29:) s
52.2 358 M
(        - rm ${EXECBIN} Listing.ps Listing.pdf test.out) s
25.8 346 M (30:) s
25.8 334 M (31:) s
52.2 334 M
(${DEPFILE} :) s
25.8 322 M (32:) s
52.2 322 M
(        ${MAKEDEPCPP} ${SOURCES} >${DEPFILE}) s
25.8 310 M (33:) s
25.8 298 M (34:) s
52.2 298 M
(dep :) s
25.8 286 M (35:) s
52.2 286 M
(        - rm ${DEPFILE}) s
25.8 274 M (36:) s
52.2 274 M
(        ${MAKE} --no-print-directory ${DEPFILE}) s
25.8 262 M (37:) s
25.8 250 M (38:) s
52.2 250 M
(include ${DEPFILE}) s
25.8 238 M (39:) s
25.8 226 M (40:) s
52.2 226 M
(test : ${EXECBIN}) s
25.8 214 M (41:) s
52.2 214 M
(        ${EXECBIN} * * * >test.out 2>&1) s
25.8 202 M (42:) s
25.8 190 M (43:) s
52.2 190 M
(lis : test) s
25.8 178 M (44:) s
52.2 178 M
(        mkpspdf Listing.ps ${SRCFILES} ${DEPFILE} test.out) s
25.8 166 M (45:) s
25.8 154 M (46:) s
52.2 154 M
(again : ${SRCFILES}) s
25.8 142 M (47:) s
52.2 142 M
(        make --no-print-directory spotless dep ci test lis) s
_R
S
%%Page: (1) 5
%%BeginPageSetup
_S
38 24 translate
/pagenum 1 def
/fname (Makefile.dep) def
/fdir (.) def
/ftail (Makefile.dep) def
% User defined strings:
/pagenumstr (1) def
/moddatestr (01/22/18) def
/pagecountstr (/1) def
/modtimestr (14:07:55) def
/user_header_p true def
/user_header_left_str ($cmps104a-wm/Assignments/code/string_set/) def
/user_header_center_str () def
/user_header_right_str () def
/user_footer_p false def
%%EndPageSetup
column_borders
do_header
32.4 694 M (1:) s
52.2 694 M
(string_set.o: string_set.cpp string_set.h) s
32.4 682 M (2:) s
52.2 682 M
(main.o: main.cpp string_set.h) s
_R
S
%%Page: (1) 6
%%BeginPageSetup
_S
38 24 translate
/pagenum 1 def
/fname (test.out) def
/fdir (.) def
/ftail (test.out) def
% User defined strings:
/pagenumstr (1) def
/moddatestr (01/22/18) def
/pagecountstr (/1) def
/modtimestr (14:07:55) def
/user_header_p true def
/user_header_left_str ($cmps104a-wm/Assignments/code/string_set/) def
/user_header_center_str () def
/user_header_right_str () def
/user_footer_p false def
%%EndPageSetup
column_borders
do_header
32.4 694 M (1:) s
52.2 694 M
(intern \("HEADER.html"\) returned 0x2057048->"HEADER.html") s
32.4 682 M (2:) s
52.2 682 M
(intern \("Makefile"\) returned 0x20570b8->"Makefile") s
32.4 670 M (3:) s
52.2 670 M
(intern \("Makefile.dep"\) returned 0x2057068->"Makefile.dep") s
32.4 658 M (4:) s
52.2 658 M
(intern \("RCS"\) returned 0x2057178->"RCS") s
32.4 646 M (5:) s
52.2 646 M
(intern \("main.cpp"\) returned 0x2057258->"main.cpp") s
32.4 634 M (6:) s
52.2 634 M
(intern \("main.o"\) returned 0x20572a8->"main.o") s
32.4 622 M (7:) s
52.2 622 M
(intern \("string_set.cpp"\) returned 0x20572f8->"string_set.cpp") s
32.4 610 M (8:) s
52.2 610 M
(intern \("string_set.h"\) returned 0x2057348->"string_set.h") s
32.4 598 M (9:) s
52.2 598 M
(intern \("string_set.o"\) returned 0x2057398->"string_set.o") s
25.8 586 M (10:) s
52.2 586 M
(intern \("test.err"\) returned 0x20571c8->"test.err") s
25.8 574 M (11:) s
52.2 574 M
(intern \("test_string_set"\) returned 0x20574e8->"test_string_set") s
25.8 562 M (12:) s
52.2 562 M
(intern \("HEADER.html"\) returned 0x2057048->"HEADER.html") s
25.8 550 M (13:) s
52.2 550 M
(intern \("Makefile"\) returned 0x20570b8->"Makefile") s
25.8 538 M (14:) s
52.2 538 M
(intern \("Makefile.dep"\) returned 0x2057068->"Makefile.dep") s
25.8 526 M (15:) s
52.2 526 M
(intern \("RCS"\) returned 0x2057178->"RCS") s
25.8 514 M (16:) s
52.2 514 M
(intern \("main.cpp"\) returned 0x2057258->"main.cpp") s
25.8 502 M (17:) s
52.2 502 M
(intern \("main.o"\) returned 0x20572a8->"main.o") s
25.8 490 M (18:) s
52.2 490 M
(intern \("string_set.cpp"\) returned 0x20572f8->"string_set.cpp") s
25.8 478 M (19:) s
52.2 478 M
(intern \("string_set.h"\) returned 0x2057348->"string_set.h") s
25.8 466 M (20:) s
52.2 466 M
(intern \("string_set.o"\) returned 0x2057398->"string_set.o") s
25.8 454 M (21:) s
52.2 454 M
(intern \("test.err"\) returned 0x20571c8->"test.err") s
25.8 442 M (22:) s
52.2 442 M
(intern \("test_string_set"\) returned 0x20574e8->"test_string_set") s
25.8 430 M (23:) s
52.2 430 M
(intern \("HEADER.html"\) returned 0x2057048->"HEADER.html") s
25.8 418 M (24:) s
52.2 418 M
(intern \("Makefile"\) returned 0x20570b8->"Makefile") s
25.8 406 M (25:) s
52.2 406 M
(intern \("Makefile.dep"\) returned 0x2057068->"Makefile.dep") s
25.8 394 M (26:) s
52.2 394 M
(intern \("RCS"\) returned 0x2057178->"RCS") s
25.8 382 M (27:) s
52.2 382 M
(intern \("main.cpp"\) returned 0x2057258->"main.cpp") s
25.8 370 M (28:) s
52.2 370 M
(intern \("main.o"\) returned 0x20572a8->"main.o") s
25.8 358 M (29:) s
52.2 358 M
(intern \("string_set.cpp"\) returned 0x20572f8->"string_set.cpp") s
25.8 346 M (30:) s
52.2 346 M
(intern \("string_set.h"\) returned 0x2057348->"string_set.h") s
25.8 334 M (31:) s
52.2 334 M
(intern \("string_set.o"\) returned 0x2057398->"string_set.o") s
25.8 322 M (32:) s
52.2 322 M
(intern \("test.err"\) returned 0x20571c8->"test.err") s
25.8 310 M (33:) s
52.2 310 M
(intern \("test_string_set"\) returned 0x20574e8->"test_string_set") s
25.8 298 M (34:) s
52.2 298 M
(string_set[   1]:    1516108490113098673 0x2057398->"string_set.o") s
25.8 286 M (35:) s
52.2 286 M
(                     2099682443743551108 0x20572a8->"main.o") s
25.8 274 M (36:) s
52.2 274 M
(                    17041606903804112922 0x2057258->"main.cpp") s
25.8 262 M (37:) s
52.2 262 M
(string_set[   3]:   13646535705723827550 0x2057048->"HEADER.html") s
25.8 250 M (38:) s
52.2 250 M
(string_set[   5]:    8902767590177878864 0x20570b8->"Makefile") s
25.8 238 M (39:) s
52.2 238 M
(string_set[   6]:   15286446792580072886 0x20572f8->"string_set.cpp") s
25.8 226 M (40:) s
52.2 226 M
(string_set[  11]:     994128771139992428 0x2057178->"RCS") s
25.8 214 M (41:) s
52.2 214 M
(string_set[  15]:    2246613038755228464 0x2057068->"Makefile.dep") s
25.8 202 M (42:) s
52.2 202 M
(string_set[  20]:    7517842887488357474 0x2057348->"string_set.h") s
25.8 190 M (43:) s
52.2 190 M
(string_set[  31]:    9633715851746635993 0x20571c8->"test.err") s
25.8 178 M (44:) s
52.2 178 M
(string_set[  35]:    9799794095794511326 0x20574e8->"test_string_set") s
25.8 166 M (45:) s
52.2 166 M
(load_factor = 0.297) s
25.8 154 M (46:) s
52.2 154 M
(bucket_count = 37) s
25.8 142 M (47:) s
52.2 142 M
(max_bucket_size = 3) s
_R
S
%%Trailer
%%Pages: 6
%%DocumentNeededResources: font Times-Roman Courier-Bold Times-Bold 
%%EOF
