%!PS-Adobe-3.0
%%BoundingBox: 38 24 574 768
%%Title: Listing.ps
%%For: Wesley Mackey
%%Creator: GNU Enscript 1.6.6
%%CreationDate: Mon Jan 22 14:05:23 2018
%%Orientation: Portrait
%%Pages: (atend)
%%DocumentMedia: Letter 612 792 0 () ()
%%DocumentNeededResources: (atend)
%%EndComments
%%BeginProlog
%%BeginResource: procset Enscript-Prolog 1.6 6
%
% Procedures.
%

/_S {	% save current state
  /_s save def
} def
/_R {	% restore from saved state
  _s restore
} def

/S {	% showpage protecting gstate
  gsave
  showpage
  grestore
} bind def

/MF {	% fontname newfontname -> -	make a new encoded font
  /newfontname exch def
  /fontname exch def

  /fontdict fontname findfont def
  /newfont fontdict maxlength dict def

  fontdict {
    exch
    dup /FID eq {
      % skip FID pair
      pop pop
    } {
      % copy to the new font dictionary
      exch newfont 3 1 roll put
    } ifelse
  } forall

  newfont /FontName newfontname put

  % insert only valid encoding vectors
  encoding_vector length 256 eq {
    newfont /Encoding encoding_vector put
  } if

  newfontname newfont definefont pop
} def

/MF_PS { % fontname newfontname -> -	make a new font preserving its enc
  /newfontname exch def
  /fontname exch def

  /fontdict fontname findfont def
  /newfont fontdict maxlength dict def

  fontdict {
    exch
    dup /FID eq {
      % skip FID pair
      pop pop
    } {
      % copy to the new font dictionary
      exch newfont 3 1 roll put
    } ifelse
  } forall

  newfont /FontName newfontname put

  newfontname newfont definefont pop
} def

/SF { % fontname width height -> -	set a new font
  /height exch def
  /width exch def

  findfont
  [width 0 0 height 0 0] makefont setfont
} def

/SUF { % fontname width height -> -	set a new user font
  /height exch def
  /width exch def

  /F-gs-user-font MF
  /F-gs-user-font width height SF
} def

/SUF_PS { % fontname width height -> -	set a new user font preserving its enc
  /height exch def
  /width exch def

  /F-gs-user-font MF_PS
  /F-gs-user-font width height SF
} def

/M {moveto} bind def
/s {show} bind def

/Box {	% x y w h -> -			define box path
  /d_h exch def /d_w exch def /d_y exch def /d_x exch def
  d_x d_y  moveto
  d_w 0 rlineto
  0 d_h rlineto
  d_w neg 0 rlineto
  closepath
} def

/bgs {	% x y height blskip gray str -> -	show string with bg color
  /str exch def
  /gray exch def
  /blskip exch def
  /height exch def
  /y exch def
  /x exch def

  gsave
    x y blskip sub str stringwidth pop height Box
    gray setgray
    fill
  grestore
  x y M str s
} def

/bgcs { % x y height blskip red green blue str -> -  show string with bg color
  /str exch def
  /blue exch def
  /green exch def
  /red exch def
  /blskip exch def
  /height exch def
  /y exch def
  /x exch def

  gsave
    x y blskip sub str stringwidth pop height Box
    red green blue setrgbcolor
    fill
  grestore
  x y M str s
} def

% Highlight bars.
/highlight_bars {	% nlines lineheight output_y_margin gray -> -
  gsave
    setgray
    /ymarg exch def
    /lineheight exch def
    /nlines exch def

    % This 2 is just a magic number to sync highlight lines to text.
    0 d_header_y ymarg sub 2 sub translate

    /cw d_output_w cols div def
    /nrows d_output_h ymarg 2 mul sub lineheight div cvi def

    % for each column
    0 1 cols 1 sub {
      cw mul /xp exch def

      % for each rows
      0 1 nrows 1 sub {
        /rn exch def
        rn lineheight mul neg /yp exch def
        rn nlines idiv 2 mod 0 eq {
	  % Draw highlight bar.  4 is just a magic indentation.
	  xp 4 add yp cw 8 sub lineheight neg Box fill
	} if
      } for
    } for

  grestore
} def

% Line highlight bar.
/line_highlight {	% x y width height gray -> -
  gsave
    /gray exch def
    Box gray setgray fill
  grestore
} def

% Column separator lines.
/column_lines {
  gsave
    .1 setlinewidth
    0 d_footer_h translate
    /cw d_output_w cols div def
    1 1 cols 1 sub {
      cw mul 0 moveto
      0 d_output_h rlineto stroke
    } for
  grestore
} def

% Column borders.
/column_borders {
  gsave
    .1 setlinewidth
    0 d_footer_h moveto
    0 d_output_h rlineto
    d_output_w 0 rlineto
    0 d_output_h neg rlineto
    closepath stroke
  grestore
} def

% Do the actual underlay drawing
/draw_underlay {
  ul_style 0 eq {
    ul_str true charpath stroke
  } {
    ul_str show
  } ifelse
} def

% Underlay
/underlay {	% - -> -
  gsave
    0 d_page_h translate
    d_page_h neg d_page_w atan rotate

    ul_gray setgray
    ul_font setfont
    /dw d_page_h dup mul d_page_w dup mul add sqrt def
    ul_str stringwidth pop dw exch sub 2 div ul_h_ptsize -2 div moveto
    draw_underlay
  grestore
} def

/user_underlay {	% - -> -
  gsave
    ul_x ul_y translate
    ul_angle rotate
    ul_gray setgray
    ul_font setfont
    0 0 ul_h_ptsize 2 div sub moveto
    draw_underlay
  grestore
} def

% Page prefeed
/page_prefeed {		% bool -> -
  statusdict /prefeed known {
    statusdict exch /prefeed exch put
  } {
    pop
  } ifelse
} def

% Wrapped line markers
/wrapped_line_mark {	% x y charwith charheight type -> -
  /type exch def
  /h exch def
  /w exch def
  /y exch def
  /x exch def

  type 2 eq {
    % Black boxes (like TeX does)
    gsave
      0 setlinewidth
      x w 4 div add y M
      0 h rlineto w 2 div 0 rlineto 0 h neg rlineto
      closepath fill
    grestore
  } {
    type 3 eq {
      % Small arrows
      gsave
        .2 setlinewidth
        x w 2 div add y h 2 div add M
        w 4 div 0 rlineto
        x w 4 div add y lineto stroke

        x w 4 div add w 8 div add y h 4 div add M
        x w 4 div add y lineto
	w 4 div h 8 div rlineto stroke
      grestore
    } {
      % do nothing
    } ifelse
  } ifelse
} def

% EPSF import.

/BeginEPSF {
  /b4_Inc_state save def    		% Save state for cleanup
  /dict_count countdictstack def	% Count objects on dict stack
  /op_count count 1 sub def		% Count objects on operand stack
  userdict begin
  /showpage { } def
  0 setgray 0 setlinecap
  1 setlinewidth 0 setlinejoin
  10 setmiterlimit [ ] 0 setdash newpath
  /languagelevel where {
    pop languagelevel
    1 ne {
      false setstrokeadjust false setoverprint
    } if
  } if
} bind def

/EndEPSF {
  count op_count sub { pos } repeat	% Clean up stacks
  countdictstack dict_count sub { end } repeat
  b4_Inc_state restore
} bind def

% Check PostScript language level.
/languagelevel where {
  pop /gs_languagelevel languagelevel def
} {
  /gs_languagelevel 1 def
} ifelse
%%EndResource
%%BeginResource: procset Enscript-Encoding-88591 1.6 6
/encoding_vector [
/.notdef      	/.notdef      	/.notdef      	/.notdef      	
/.notdef      	/.notdef      	/.notdef      	/.notdef      	
/.notdef      	/.notdef      	/.notdef      	/.notdef      	
/.notdef      	/.notdef      	/.notdef      	/.notdef      	
/.notdef      	/.notdef      	/.notdef      	/.notdef      	
/.notdef      	/.notdef      	/.notdef      	/.notdef      	
/.notdef      	/.notdef      	/.notdef      	/.notdef      	
/.notdef      	/.notdef      	/.notdef      	/.notdef      	
/space        	/exclam       	/quotedbl     	/numbersign   	
/dollar       	/percent      	/ampersand    	/quoteright   	
/parenleft    	/parenright   	/asterisk     	/plus         	
/comma        	/hyphen       	/period       	/slash        	
/zero         	/one          	/two          	/three        	
/four         	/five         	/six          	/seven        	
/eight        	/nine         	/colon        	/semicolon    	
/less         	/equal        	/greater      	/question     	
/at           	/A            	/B            	/C            	
/D            	/E            	/F            	/G            	
/H            	/I            	/J            	/K            	
/L            	/M            	/N            	/O            	
/P            	/Q            	/R            	/S            	
/T            	/U            	/V            	/W            	
/X            	/Y            	/Z            	/bracketleft  	
/backslash    	/bracketright 	/asciicircum  	/underscore   	
/quoteleft    	/a            	/b            	/c            	
/d            	/e            	/f            	/g            	
/h            	/i            	/j            	/k            	
/l            	/m            	/n            	/o            	
/p            	/q            	/r            	/s            	
/t            	/u            	/v            	/w            	
/x            	/y            	/z            	/braceleft    	
/bar          	/braceright   	/tilde        	/.notdef      	
/.notdef      	/.notdef      	/.notdef      	/.notdef      	
/.notdef      	/.notdef      	/.notdef      	/.notdef      	
/.notdef      	/.notdef      	/.notdef      	/.notdef      	
/.notdef      	/.notdef      	/.notdef      	/.notdef      	
/.notdef      	/.notdef      	/.notdef      	/.notdef      	
/.notdef      	/.notdef      	/.notdef      	/.notdef      	
/.notdef      	/.notdef      	/.notdef      	/.notdef      	
/.notdef      	/.notdef      	/.notdef      	/.notdef      	
/space        	/exclamdown   	/cent         	/sterling     	
/currency     	/yen          	/brokenbar    	/section      	
/dieresis     	/copyright    	/ordfeminine  	/guillemotleft	
/logicalnot   	/hyphen       	/registered   	/macron       	
/degree       	/plusminus    	/twosuperior  	/threesuperior	
/acute        	/mu           	/paragraph    	/bullet       	
/cedilla      	/onesuperior  	/ordmasculine 	/guillemotright	
/onequarter   	/onehalf      	/threequarters	/questiondown 	
/Agrave       	/Aacute       	/Acircumflex  	/Atilde       	
/Adieresis    	/Aring        	/AE           	/Ccedilla     	
/Egrave       	/Eacute       	/Ecircumflex  	/Edieresis    	
/Igrave       	/Iacute       	/Icircumflex  	/Idieresis    	
/Eth          	/Ntilde       	/Ograve       	/Oacute       	
/Ocircumflex  	/Otilde       	/Odieresis    	/multiply     	
/Oslash       	/Ugrave       	/Uacute       	/Ucircumflex  	
/Udieresis    	/Yacute       	/Thorn        	/germandbls   	
/agrave       	/aacute       	/acircumflex  	/atilde       	
/adieresis    	/aring        	/ae           	/ccedilla     	
/egrave       	/eacute       	/ecircumflex  	/edieresis    	
/igrave       	/iacute       	/icircumflex  	/idieresis    	
/eth          	/ntilde       	/ograve       	/oacute       	
/ocircumflex  	/otilde       	/odieresis    	/divide       	
/oslash       	/ugrave       	/uacute       	/ucircumflex  	
/udieresis    	/yacute       	/thorn        	/ydieresis    	
] def
%%EndResource
%%EndProlog
%%BeginSetup
%%IncludeResource: font Courier-Bold
/HFpt_w 10 def
/HFpt_h 10 def
/Courier-Bold /HF-gs-font MF
/HF /HF-gs-font findfont [HFpt_w 0 0 HFpt_h 0 0] makefont def
/Courier-Bold /F-gs-font MF
/F-gs-font 11 11 SF
/#copies 1 def
% Pagedevice definitions:
gs_languagelevel 1 gt {
  <<
    /PageSize [612 792] 
  >> setpagedevice
} if
%%BeginResource: procset Enscript-Header-enscript-mycolor 1.6 6
%%IncludeResource: font Times-Bold
%%IncludeResource: font Times-Roman

% Fonts.
/Times-Bold /HeaderFont-Bold MF
/HeaderDateF /HeaderFont-Bold findfont 12 scalefont def

/Times-Roman /HeaderFont-Times MF
/HeaderHDRF /HeaderFont-Times findfont 14 scalefont def

/HeaderPageNumF /Helvetica-Bold findfont 28.8 scalefont def
/HeaderPageCountF /Helvetica-Bold findfont 18 scalefont def

/do_header {	% print enscript header
  gsave
    d_header_x d_header_y translate

    /dhw d_header_w 4 sub def

    /linecolor {0 0 0 setrgbcolor} bind def  % line color
    /txcolor   {0 0 0 setrgbcolor} bind def  % text color
    /fncolor   {0 0 0 setrgbcolor} bind def  % filename line color

    .5 setlinewidth

    % line across bottom of the header area
    linecolor
    0 0 moveto dhw 0 lineto

    % side boxes
    /sbw d_header_h 2 mul def	% side box width

    % left side box
    0 0 sbw d_header_h Box
    linecolor
    stroke

    % date/time in left box
    txcolor
    HeaderDateF setfont
    moddatestr dup stringwidth pop sbw exch sub 2 div
    d_header_h 2 div 2 add moveto show
    modtimestr dup stringwidth pop sbw exch sub 2 div
    d_header_h 5 div moveto show

    % right side box
    dhw sbw sub 0 sbw d_header_h Box
    linecolor
    stroke

    % get width of pagecount
    HeaderPageCountF setfont
    pagecountstr stringwidth pop

    txcolor
    HeaderPageNumF setfont
    pagenumstr stringwidth pop add  % add to width of pagecount
    sbw exch sub 2 div dhw sbw sub add
    d_header_h .2 mul moveto

    pagenumstr show

    HeaderPageCountF setfont
    pagecountstr show

    % filename
    fncolor
    HeaderHDRF setfont
    dhw fname stringwidth pop sub 2 div d_header_h 8 div moveto
    fname show

    % user supplied header string.
    user_header_p {
      /h d_header_h 8 div 5 mul def

      % HACK around a bug in enscript 1.6.0:
      % for some reason this is getting set to "(null)" and
      %
      user_header_center_str (\(null\)) eq {
        /user_header_center_str () def
      } if

      % Implement strict enscript compatibility.
      user_header_center_str () eq user_header_right_str () eq and {
        dhw user_header_left_str stringwidth pop sub 2 div
        h moveto user_header_left_str show
      } {
        sbw 5 add h moveto user_header_left_str show

        dhw user_header_center_str stringwidth pop sub 2 div
        h moveto user_header_center_str show

	dhw sbw sub 5 sub user_header_right_str stringwidth pop
	sub h moveto user_header_right_str show
      } ifelse
    } if

  grestore
} bind def
%%EndResource
/d_page_w 536 def
/d_page_h 744 def
/d_header_x 0 def
/d_header_y 708 def
/d_header_w 536 def
/d_header_h 36 def
/d_footer_x 0 def
/d_footer_y 0 def
/d_footer_w 536 def
/d_footer_h 0 def
/d_output_w 536 def
/d_output_h 708 def
/cols 1 def
%%EndSetup
%%Page: (1) 1
%%BeginPageSetup
_S
38 24 translate
/pagenum 1 def
/fname (cppstrtok.cpp) def
/fdir (.) def
/ftail (cppstrtok.cpp) def
% User defined strings:
/pagenumstr (1) def
/moddatestr (10/04/17) def
/pagecountstr (/2) def
/modtimestr (15:57:50) def
/user_header_p true def
/user_header_left_str ($cmps104a-wm/Assignments/code/cppstrtok/) def
/user_header_center_str () def
/user_header_right_str () def
/user_footer_p false def
%%EndPageSetup
column_borders
do_header
32.4 694 M (1:) s
52.2 694 M
(// $Id: cppstrtok.cpp,v 1.8 2017-09-21 15:51:23-07 - - $) s
32.4 682 M (2:) s
32.4 670 M (3:) s
52.2 670 M
(// Use cpp to scan a file and print line numbers.) s
32.4 658 M (4:) s
52.2 658 M
(// Print out each input line read in, then strtok it for) s
32.4 646 M (5:) s
52.2 646 M
(// tokens.) s
32.4 634 M (6:) s
32.4 622 M (7:) s
52.2 622 M
(#include <string>) s
32.4 610 M (8:) s
52.2 610 M
(using namespace std;) s
32.4 598 M (9:) s
25.8 586 M (10:) s
52.2 586 M
(#include <errno.h>) s
25.8 574 M (11:) s
52.2 574 M
(#include <libgen.h>) s
25.8 562 M (12:) s
52.2 562 M
(#include <stdio.h>) s
25.8 550 M (13:) s
52.2 550 M
(#include <stdlib.h>) s
25.8 538 M (14:) s
52.2 538 M
(#include <string.h>) s
25.8 526 M (15:) s
52.2 526 M
(#include <wait.h>) s
25.8 514 M (16:) s
25.8 502 M (17:) s
52.2 502 M
(const string CPP = "/usr/bin/cpp -nostdinc";) s
25.8 490 M (18:) s
52.2 490 M
(constexpr size_t LINESIZE = 1024;) s
25.8 478 M (19:) s
25.8 466 M (20:) s
52.2 466 M
(// Chomp the last character from a buffer if it is delim.) s
25.8 454 M (21:) s
52.2 454 M
(void chomp \(char* string, char delim\) {) s
25.8 442 M (22:) s
52.2 442 M
(   size_t len = strlen \(string\);) s
25.8 430 M (23:) s
52.2 430 M
(   if \(len == 0\) return;) s
25.8 418 M (24:) s
52.2 418 M
(   char* nlpos = string + len - 1;) s
25.8 406 M (25:) s
52.2 406 M
(   if \(*nlpos == delim\) *nlpos = '\\0';) s
25.8 394 M (26:) s
52.2 394 M
(}) s
25.8 382 M (27:) s
25.8 370 M (28:) s
52.2 370 M
(// Print the meaning of a signal.) s
25.8 358 M (29:) s
52.2 358 M
(static void eprint_signal \(const char* kind, int signal\) {) s
25.8 346 M (30:) s
52.2 346 M
(   fprintf \(stderr, ", %s %d", kind, signal\);) s
25.8 334 M (31:) s
52.2 334 M
(   const char* sigstr = strsignal \(signal\);) s
25.8 322 M (32:) s
52.2 322 M
(   if \(sigstr != nullptr\) fprintf \(stderr, " %s", sigstr\);) s
25.8 310 M (33:) s
52.2 310 M
(}) s
25.8 298 M (34:) s
25.8 286 M (35:) s
52.2 286 M
(// Print the status returned from a subprocess.) s
25.8 274 M (36:) s
52.2 274 M
(void eprint_status \(const char* command, int status\) {) s
25.8 262 M (37:) s
52.2 262 M
(   if \(status == 0\) return; ) s
25.8 250 M (38:) s
52.2 250 M
(   fprintf \(stderr, "%s: status 0x%04X", command, status\);) s
25.8 238 M (39:) s
52.2 238 M
(   if \(WIFEXITED \(status\)\) {) s
25.8 226 M (40:) s
52.2 226 M
(      fprintf \(stderr, ", exit %d", WEXITSTATUS \(status\)\);) s
25.8 214 M (41:) s
52.2 214 M
(   }) s
25.8 202 M (42:) s
52.2 202 M
(   if \(WIFSIGNALED \(status\)\) {) s
25.8 190 M (43:) s
52.2 190 M
(      eprint_signal \("Terminated", WTERMSIG \(status\)\);) s
25.8 178 M (44:) s
52.2 178 M
(      #ifdef WCOREDUMP) s
25.8 166 M (45:) s
52.2 166 M
(      if \(WCOREDUMP \(status\)\) fprintf \(stderr, ", core dumped"\);) s
25.8 154 M (46:) s
52.2 154 M
(      #endif) s
25.8 142 M (47:) s
52.2 142 M
(   }) s
25.8 130 M (48:) s
52.2 130 M
(   if \(WIFSTOPPED \(status\)\) {) s
25.8 118 M (49:) s
52.2 118 M
(      eprint_signal \("Stopped", WSTOPSIG \(status\)\);) s
25.8 106 M (50:) s
52.2 106 M
(   }) s
25.8 94 M (51:) s
52.2 94 M
(   if \(WIFCONTINUED \(status\)\) {) s
25.8 82 M (52:) s
52.2 82 M
(      fprintf \(stderr, ", Continued"\);) s
25.8 70 M (53:) s
52.2 70 M
(   }) s
25.8 58 M (54:) s
52.2 58 M
(   fprintf \(stderr, "\\n"\);) s
25.8 46 M (55:) s
52.2 46 M
(}) s
25.8 34 M (56:) s
_R
S
%%Page: (2) 2
%%BeginPageSetup
_S
38 24 translate
/pagenum 2 def
/fname (cppstrtok.cpp) def
/fdir (.) def
/ftail (cppstrtok.cpp) def
% User defined strings:
/pagenumstr (2) def
/moddatestr (10/04/17) def
/pagecountstr (/2) def
/modtimestr (15:57:50) def
/user_header_p true def
/user_header_left_str ($cmps104a-wm/Assignments/code/cppstrtok/) def
/user_header_center_str () def
/user_header_right_str () def
/user_footer_p false def
%%EndPageSetup
column_borders
do_header
25.8 694 M (57:) s
25.8 682 M (58:) s
52.2 682 M
(// Run cpp against the lines of the file.) s
25.8 670 M (59:) s
52.2 670 M
(void cpplines \(FILE* pipe, const char* filename\) {) s
25.8 658 M (60:) s
52.2 658 M
(   int linenr = 1;) s
25.8 646 M (61:) s
52.2 646 M
(   char inputname[LINESIZE];) s
25.8 634 M (62:) s
52.2 634 M
(   strcpy \(inputname, filename\);) s
25.8 622 M (63:) s
52.2 622 M
(   for \(;;\) {) s
25.8 610 M (64:) s
52.2 610 M
(      char buffer[LINESIZE];) s
25.8 598 M (65:) s
52.2 598 M
(      char* fgets_rc = fgets \(buffer, LINESIZE, pipe\);) s
25.8 586 M (66:) s
52.2 586 M
(      if \(fgets_rc == nullptr\) break;) s
25.8 574 M (67:) s
52.2 574 M
(      chomp \(buffer, '\\n'\);) s
25.8 562 M (68:) s
52.2 562 M
(      printf \("%s:line %d: [%s]\\n", filename, linenr, buffer\);) s
25.8 550 M (69:) s
52.2 550 M
(      // http://gcc.gnu.org/onlinedocs/cpp/Preprocessor-Output.html) s
25.8 538 M (70:) s
52.2 538 M
(      int sscanf_rc = sscanf \(buffer, "# %d \\"%[^\\"]\\"",) s
25.8 526 M (71:) s
52.2 526 M
(                              &linenr, inputname\);) s
25.8 514 M (72:) s
52.2 514 M
(      if \(sscanf_rc == 2\) {) s
25.8 502 M (73:) s
52.2 502 M
(         printf \("DIRECTIVE: line %d file \\"%s\\"\\n", linenr, inputname\);) s
25.8 490 M (74:) s
52.2 490 M
(         continue;) s
25.8 478 M (75:) s
52.2 478 M
(      }) s
25.8 466 M (76:) s
52.2 466 M
(      char* savepos = nullptr;) s
25.8 454 M (77:) s
52.2 454 M
(      char* bufptr = buffer;) s
25.8 442 M (78:) s
52.2 442 M
(      for \(int tokenct = 1;; ++tokenct\) {) s
25.8 430 M (79:) s
52.2 430 M
(         char* token = strtok_r \(bufptr, " \\t\\n", &savepos\);) s
25.8 418 M (80:) s
52.2 418 M
(         bufptr = nullptr;) s
25.8 406 M (81:) s
52.2 406 M
(         if \(token == nullptr\) break;) s
25.8 394 M (82:) s
52.2 394 M
(         printf \("token %d.%d: [%s]\\n",) s
25.8 382 M (83:) s
52.2 382 M
(                 linenr, tokenct, token\);) s
25.8 370 M (84:) s
52.2 370 M
(      }) s
25.8 358 M (85:) s
52.2 358 M
(      ++linenr;) s
25.8 346 M (86:) s
52.2 346 M
(   }) s
25.8 334 M (87:) s
52.2 334 M
(}) s
25.8 322 M (88:) s
25.8 310 M (89:) s
52.2 310 M
(int main \(int argc, char** argv\) {) s
25.8 298 M (90:) s
52.2 298 M
(   const char* execname = basename \(argv[0]\);) s
25.8 286 M (91:) s
52.2 286 M
(   int exit_status = EXIT_SUCCESS;) s
25.8 274 M (92:) s
52.2 274 M
(   for \(int argi = 1; argi < argc; ++argi\) {) s
25.8 262 M (93:) s
52.2 262 M
(      char* filename = argv[argi];) s
25.8 250 M (94:) s
52.2 250 M
(      string command = CPP + " " + filename;) s
25.8 238 M (95:) s
52.2 238 M
(      printf \("command=\\"%s\\"\\n", command.c_str\(\)\);) s
25.8 226 M (96:) s
52.2 226 M
(      FILE* pipe = popen \(command.c_str\(\), "r"\);) s
25.8 214 M (97:) s
52.2 214 M
(      if \(pipe == nullptr\) {) s
25.8 202 M (98:) s
52.2 202 M
(         exit_status = EXIT_FAILURE;) s
25.8 190 M (99:) s
52.2 190 M
(         fprintf \(stderr, "%s: %s: %s\\n",) s
19.2 178 M (100:) s
52.2 178 M
(                  execname, command.c_str\(\), strerror \(errno\)\);) s
19.2 166 M (101:) s
52.2 166 M
(      }else {) s
19.2 154 M (102:) s
52.2 154 M
(         cpplines \(pipe, filename\);) s
19.2 142 M (103:) s
52.2 142 M
(         int pclose_rc = pclose \(pipe\);) s
19.2 130 M (104:) s
52.2 130 M
(         eprint_status \(command.c_str\(\), pclose_rc\);) s
19.2 118 M (105:) s
52.2 118 M
(         if \(pclose_rc != 0\) exit_status = EXIT_FAILURE;) s
19.2 106 M (106:) s
52.2 106 M
(      }) s
19.2 94 M (107:) s
52.2 94 M
(   }) s
19.2 82 M (108:) s
52.2 82 M
(   return exit_status;) s
19.2 70 M (109:) s
52.2 70 M
(}) s
19.2 58 M (110:) s
_R
S
%%Page: (1) 3
%%BeginPageSetup
_S
38 24 translate
/pagenum 1 def
/fname (Makefile) def
/fdir (.) def
/ftail (Makefile) def
% User defined strings:
/pagenumstr (1) def
/moddatestr (01/22/18) def
/pagecountstr (/1) def
/modtimestr (14:05:20) def
/user_header_p true def
/user_header_left_str ($cmps104a-wm/Assignments/code/cppstrtok/) def
/user_header_center_str () def
/user_header_right_str () def
/user_footer_p false def
%%EndPageSetup
column_borders
do_header
32.4 694 M (1:) s
52.2 694 M
(# $Id: Makefile,v 1.14 2017-09-21 15:51:23-07 - - $) s
32.4 682 M (2:) s
32.4 670 M (3:) s
52.2 670 M
(COMPILECPP = g++ -std=gnu++17 -g -O0 -Wall -Wextra -Wold-style-cast) s
32.4 658 M (4:) s
52.2 658 M
(MAKEDEPCPP = g++ -std=gnu++17 -MM) s
32.4 646 M (5:) s
52.2 646 M
(VALGRIND   = valgrind --leak-check=full --show-reachable=yes) s
32.4 634 M (6:) s
32.4 622 M (7:) s
52.2 622 M
(MKFILE     = Makefile) s
32.4 610 M (8:) s
52.2 610 M
(DEPFILE    = Makefile.dep) s
32.4 598 M (9:) s
52.2 598 M
(SOURCES    = cppstrtok.cpp) s
25.8 586 M (10:) s
52.2 586 M
(OBJECTS    = ${SOURCES:.cpp=.o}) s
25.8 574 M (11:) s
52.2 574 M
(EXECBIN    = cppstrtok) s
25.8 562 M (12:) s
52.2 562 M
(SRCFILES   = ${SOURCES} ${MKFILE}) s
25.8 550 M (13:) s
52.2 550 M
(SMALLFILES = ${DEPFILE} foo.oc foo1.oh foo2.oh) s
25.8 538 M (14:) s
52.2 538 M
(CHECKINS   = ${SRCFILES} ${SMALLFILES}) s
25.8 526 M (15:) s
52.2 526 M
(LISTING    = Listing.ps) s
25.8 514 M (16:) s
25.8 502 M (17:) s
52.2 502 M
(all : ${EXECBIN}) s
25.8 490 M (18:) s
25.8 478 M (19:) s
52.2 478 M
(${EXECBIN} : ${OBJECTS}) s
25.8 466 M (20:) s
52.2 466 M
(        ${COMPILECPP} -o${EXECBIN} ${OBJECTS}) s
25.8 454 M (21:) s
25.8 442 M (22:) s
52.2 442 M
(%.o : %.cpp) s
25.8 430 M (23:) s
52.2 430 M
(        ${COMPILECPP} -c $<) s
25.8 418 M (24:) s
25.8 406 M (25:) s
52.2 406 M
(ci :) s
25.8 394 M (26:) s
52.2 394 M
(        cid + ${CHECKINS}) s
25.8 382 M (27:) s
52.2 382 M
(        checksource ${CHECKINS}) s
25.8 370 M (28:) s
25.8 358 M (29:) s
52.2 358 M
(clean :) s
25.8 346 M (30:) s
52.2 346 M
(        - rm ${OBJECTS}) s
25.8 334 M (31:) s
25.8 322 M (32:) s
52.2 322 M
(spotless : clean) s
25.8 310 M (33:) s
52.2 310 M
(        - rm ${EXECBIN} ${LISTING} ${LISTING:.ps=.pdf} ${DEPFILE} \\) s
25.8 298 M (34:) s
52.2 298 M
(             test.out misc.lis) s
25.8 286 M (35:) s
25.8 274 M (36:) s
52.2 274 M
(${DEPFILE} :) s
25.8 262 M (37:) s
52.2 262 M
(        ${MAKEDEPCPP} ${SOURCES} >${DEPFILE}) s
25.8 250 M (38:) s
25.8 238 M (39:) s
52.2 238 M
(dep :) s
25.8 226 M (40:) s
52.2 226 M
(        - rm ${DEPFILE}) s
25.8 214 M (41:) s
52.2 214 M
(        ${MAKE} --no-print-directory ${DEPFILE}) s
25.8 202 M (42:) s
25.8 190 M (43:) s
52.2 190 M
(include Makefile.dep) s
25.8 178 M (44:) s
25.8 166 M (45:) s
52.2 166 M
(test : ${EXECBIN}) s
25.8 154 M (46:) s
52.2 154 M
(        ${VALGRIND} ${EXECBIN} foo.oc 1>test.out 2>&1) s
25.8 142 M (47:) s
25.8 130 M (48:) s
52.2 130 M
(misc.lis : ${DEPFILE} foo.oc foo1.oh foo2.oh) s
25.8 118 M (49:) s
52.2 118 M
(        catnv ${DEPFILE} foo.oc foo1.oh foo2.oh >misc.lis) s
25.8 106 M (50:) s
25.8 94 M (51:) s
52.2 94 M
(lis : misc.lis test) s
25.8 82 M (52:) s
52.2 82 M
(        mkpspdf ${LISTING} ${SRCFILES} misc.lis test.out) s
25.8 70 M (53:) s
25.8 58 M (54:) s
52.2 58 M
(again :) s
25.8 46 M (55:) s
52.2 46 M
(        ${MAKE} spotless dep all test lis) s
25.8 34 M (56:) s
_R
S
%%Page: (1) 4
%%BeginPageSetup
_S
38 24 translate
/pagenum 1 def
/fname (misc.lis) def
/fdir (.) def
/ftail (misc.lis) def
% User defined strings:
/pagenumstr (1) def
/moddatestr (01/22/18) def
/pagecountstr (/1) def
/modtimestr (14:05:23) def
/user_header_p true def
/user_header_left_str ($cmps104a-wm/Assignments/code/cppstrtok/) def
/user_header_center_str () def
/user_header_right_str () def
/user_footer_p false def
%%EndPageSetup
column_borders
do_header
32.4 694 M (1:) s
52.2 694 M
(::::::::::::::::::::::::::::::::) s
32.4 682 M (2:) s
52.2 682 M
(Makefile.dep) s
32.4 670 M (3:) s
52.2 670 M
(::::::::::::::::::::::::::::::::) s
32.4 658 M (4:) s
52.2 658 M
(     1  cppstrtok.o: cppstrtok.cpp) s
32.4 646 M (5:) s
52.2 646 M
(::::::::::::::::::::::::::::::::) s
32.4 634 M (6:) s
52.2 634 M
(foo.oc) s
32.4 622 M (7:) s
52.2 622 M
(::::::::::::::::::::::::::::::::) s
32.4 610 M (8:) s
52.2 610 M
(     1  line 1// $Id: foo.oc,v 1.1 2017-09-21 15:52:37-07 - - $) s
32.4 598 M (9:) s
52.2 598 M
(     2  __FILE__ __LINE__ __DATE__ __TIME__) s
25.8 586 M (10:) s
52.2 586 M
(     3  foo.oc, line 3.) s
25.8 574 M (11:) s
52.2 574 M
(     4  #include "foo1.oh") s
25.8 562 M (12:) s
52.2 562 M
(     5  foo.oc, line 5.) s
25.8 550 M (13:) s
52.2 550 M
(     6  #include "foo2.oh") s
25.8 538 M (14:) s
52.2 538 M
(     7  /* Comment */ on line 7) s
25.8 526 M (15:) s
52.2 526 M
(     8  FOO1 + FOO2;) s
25.8 514 M (16:) s
52.2 514 M
(     9  foo.oc, line 9, last line.) s
25.8 502 M (17:) s
52.2 502 M
(::::::::::::::::::::::::::::::::) s
25.8 490 M (18:) s
52.2 490 M
(foo1.oh) s
25.8 478 M (19:) s
52.2 478 M
(::::::::::::::::::::::::::::::::) s
25.8 466 M (20:) s
52.2 466 M
(     1  // $Id: foo1.oh,v 1.1 2017-09-21 15:52:37-07 - - $) s
25.8 454 M (21:) s
52.2 454 M
(     2  __FILE__ __LINE__ __DATE__ __TIME__) s
25.8 442 M (22:) s
52.2 442 M
(     3  foo1.h, line 3.) s
25.8 430 M (23:) s
52.2 430 M
(     4  foo1.h, line 4.) s
25.8 418 M (24:) s
52.2 418 M
(     5  // Comment.) s
25.8 406 M (25:) s
52.2 406 M
(     6  foo1.h, line 6. /* Comment */ last line) s
25.8 394 M (26:) s
52.2 394 M
(     7  #define FOO1 "foo1") s
25.8 382 M (27:) s
52.2 382 M
(::::::::::::::::::::::::::::::::) s
25.8 370 M (28:) s
52.2 370 M
(foo2.oh) s
25.8 358 M (29:) s
52.2 358 M
(::::::::::::::::::::::::::::::::) s
25.8 346 M (30:) s
52.2 346 M
(     1  // $Id: foo2.oh,v 1.1 2017-09-21 15:52:37-07 - - $) s
25.8 334 M (31:) s
52.2 334 M
(     2  __FILE__ __LINE__ __DATE__ __TIME__) s
25.8 322 M (32:) s
52.2 322 M
(     3  foo2.h, line 3.) s
25.8 310 M (33:) s
52.2 310 M
(     4  foo2.h, line 4.) s
25.8 298 M (34:) s
52.2 298 M
(     5  // Comment.) s
25.8 286 M (35:) s
52.2 286 M
(     6  foo2.h, line 6. /* Comment */ last line) s
25.8 274 M (36:) s
52.2 274 M
(     7  #define FOO2 "foo2") s
_R
S
%%Page: (1) 5
%%BeginPageSetup
_S
38 24 translate
/pagenum 1 def
/fname (test.out) def
/fdir (.) def
/ftail (test.out) def
% User defined strings:
/pagenumstr (1) def
/moddatestr (01/22/18) def
/pagecountstr (/2) def
/modtimestr (14:05:23) def
/user_header_p true def
/user_header_left_str ($cmps104a-wm/Assignments/code/cppstrtok/) def
/user_header_center_str () def
/user_header_right_str () def
/user_footer_p false def
%%EndPageSetup
column_borders
do_header
32.4 694 M (1:) s
52.2 694 M
(==13061== Memcheck, a memory error detector) s
32.4 682 M (2:) s
52.2 682 M
(==13061== Copyright \(C\) 2002-2015, and GNU GPL'd, by Julian Seward et al) s
5 670 M
(.) s
32.4 658 M (3:) s
52.2 658 M
(==13061== Using Valgrind-3.12.0 and LibVEX; rerun with -h for copyright ) s
5 646 M
(info) s
32.4 634 M (4:) s
52.2 634 M
(==13061== Command: cppstrtok foo.oc) s
32.4 622 M (5:) s
52.2 622 M
(==13061== ) s
32.4 610 M (6:) s
52.2 610 M
(command="/usr/bin/cpp -nostdinc foo.oc") s
32.4 598 M (7:) s
52.2 598 M
(foo.oc:line 1: [# 1 "foo.oc"]) s
32.4 586 M (8:) s
52.2 586 M
(DIRECTIVE: line 1 file "foo.oc") s
32.4 574 M (9:) s
52.2 574 M
(foo.oc:line 1: [# 1 "<built-in>"]) s
25.8 562 M (10:) s
52.2 562 M
(DIRECTIVE: line 1 file "<built-in>") s
25.8 550 M (11:) s
52.2 550 M
(foo.oc:line 1: [# 1 "<command-line>"]) s
25.8 538 M (12:) s
52.2 538 M
(DIRECTIVE: line 1 file "<command-line>") s
25.8 526 M (13:) s
52.2 526 M
(foo.oc:line 1: [# 1 "foo.oc"]) s
25.8 514 M (14:) s
52.2 514 M
(DIRECTIVE: line 1 file "foo.oc") s
25.8 502 M (15:) s
52.2 502 M
(foo.oc:line 1: [line 1]) s
25.8 490 M (16:) s
52.2 490 M
(token 1.1: [line]) s
25.8 478 M (17:) s
52.2 478 M
(token 1.2: [1]) s
25.8 466 M (18:) s
52.2 466 M
(foo.oc:line 2: ["foo.oc" 2 "Jan 22 2018" "14:05:23"]) s
25.8 454 M (19:) s
52.2 454 M
(token 2.1: ["foo.oc"]) s
25.8 442 M (20:) s
52.2 442 M
(token 2.2: [2]) s
25.8 430 M (21:) s
52.2 430 M
(token 2.3: ["Jan]) s
25.8 418 M (22:) s
52.2 418 M
(token 2.4: [22]) s
25.8 406 M (23:) s
52.2 406 M
(token 2.5: [2018"]) s
25.8 394 M (24:) s
52.2 394 M
(token 2.6: ["14:05:23"]) s
25.8 382 M (25:) s
52.2 382 M
(foo.oc:line 3: [foo.oc, line 3.]) s
25.8 370 M (26:) s
52.2 370 M
(token 3.1: [foo.oc,]) s
25.8 358 M (27:) s
52.2 358 M
(token 3.2: [line]) s
25.8 346 M (28:) s
52.2 346 M
(token 3.3: [3.]) s
25.8 334 M (29:) s
52.2 334 M
(foo.oc:line 4: [# 1 "foo1.oh" 1]) s
25.8 322 M (30:) s
52.2 322 M
(DIRECTIVE: line 1 file "foo1.oh") s
25.8 310 M (31:) s
52.2 310 M
(foo.oc:line 1: []) s
25.8 298 M (32:) s
52.2 298 M
(foo.oc:line 2: ["foo1.oh" 2 "Jan 22 2018" "14:05:23"]) s
25.8 286 M (33:) s
52.2 286 M
(token 2.1: ["foo1.oh"]) s
25.8 274 M (34:) s
52.2 274 M
(token 2.2: [2]) s
25.8 262 M (35:) s
52.2 262 M
(token 2.3: ["Jan]) s
25.8 250 M (36:) s
52.2 250 M
(token 2.4: [22]) s
25.8 238 M (37:) s
52.2 238 M
(token 2.5: [2018"]) s
25.8 226 M (38:) s
52.2 226 M
(token 2.6: ["14:05:23"]) s
25.8 214 M (39:) s
52.2 214 M
(foo.oc:line 3: [foo1.h, line 3.]) s
25.8 202 M (40:) s
52.2 202 M
(token 3.1: [foo1.h,]) s
25.8 190 M (41:) s
52.2 190 M
(token 3.2: [line]) s
25.8 178 M (42:) s
52.2 178 M
(token 3.3: [3.]) s
25.8 166 M (43:) s
52.2 166 M
(foo.oc:line 4: [foo1.h, line 4.]) s
25.8 154 M (44:) s
52.2 154 M
(token 4.1: [foo1.h,]) s
25.8 142 M (45:) s
52.2 142 M
(token 4.2: [line]) s
25.8 130 M (46:) s
52.2 130 M
(token 4.3: [4.]) s
25.8 118 M (47:) s
52.2 118 M
(foo.oc:line 5: []) s
25.8 106 M (48:) s
52.2 106 M
(foo.oc:line 6: [foo1.h, line 6. last line]) s
25.8 94 M (49:) s
52.2 94 M
(token 6.1: [foo1.h,]) s
25.8 82 M (50:) s
52.2 82 M
(token 6.2: [line]) s
25.8 70 M (51:) s
52.2 70 M
(token 6.3: [6.]) s
25.8 58 M (52:) s
52.2 58 M
(token 6.4: [last]) s
25.8 46 M (53:) s
52.2 46 M
(token 6.5: [line]) s
25.8 34 M (54:) s
52.2 34 M
(foo.oc:line 7: [# 5 "foo.oc" 2]) s
25.8 22 M (55:) s
52.2 22 M
(DIRECTIVE: line 5 file "foo.oc") s
25.8 10 M (56:) s
52.2 10 M
(foo.oc:line 5: [foo.oc, line 5.]) s
_R
S
%%Page: (2) 6
%%BeginPageSetup
_S
38 24 translate
/pagenum 2 def
/fname (test.out) def
/fdir (.) def
/ftail (test.out) def
% User defined strings:
/pagenumstr (2) def
/moddatestr (01/22/18) def
/pagecountstr (/2) def
/modtimestr (14:05:23) def
/user_header_p true def
/user_header_left_str ($cmps104a-wm/Assignments/code/cppstrtok/) def
/user_header_center_str () def
/user_header_right_str () def
/user_footer_p false def
%%EndPageSetup
column_borders
do_header
25.8 694 M (57:) s
52.2 694 M
(token 5.1: [foo.oc,]) s
25.8 682 M (58:) s
52.2 682 M
(token 5.2: [line]) s
25.8 670 M (59:) s
52.2 670 M
(token 5.3: [5.]) s
25.8 658 M (60:) s
52.2 658 M
(foo.oc:line 6: [# 1 "foo2.oh" 1]) s
25.8 646 M (61:) s
52.2 646 M
(DIRECTIVE: line 1 file "foo2.oh") s
25.8 634 M (62:) s
52.2 634 M
(foo.oc:line 1: []) s
25.8 622 M (63:) s
52.2 622 M
(foo.oc:line 2: ["foo2.oh" 2 "Jan 22 2018" "14:05:23"]) s
25.8 610 M (64:) s
52.2 610 M
(token 2.1: ["foo2.oh"]) s
25.8 598 M (65:) s
52.2 598 M
(token 2.2: [2]) s
25.8 586 M (66:) s
52.2 586 M
(token 2.3: ["Jan]) s
25.8 574 M (67:) s
52.2 574 M
(token 2.4: [22]) s
25.8 562 M (68:) s
52.2 562 M
(token 2.5: [2018"]) s
25.8 550 M (69:) s
52.2 550 M
(token 2.6: ["14:05:23"]) s
25.8 538 M (70:) s
52.2 538 M
(foo.oc:line 3: [foo2.h, line 3.]) s
25.8 526 M (71:) s
52.2 526 M
(token 3.1: [foo2.h,]) s
25.8 514 M (72:) s
52.2 514 M
(token 3.2: [line]) s
25.8 502 M (73:) s
52.2 502 M
(token 3.3: [3.]) s
25.8 490 M (74:) s
52.2 490 M
(foo.oc:line 4: [foo2.h, line 4.]) s
25.8 478 M (75:) s
52.2 478 M
(token 4.1: [foo2.h,]) s
25.8 466 M (76:) s
52.2 466 M
(token 4.2: [line]) s
25.8 454 M (77:) s
52.2 454 M
(token 4.3: [4.]) s
25.8 442 M (78:) s
52.2 442 M
(foo.oc:line 5: []) s
25.8 430 M (79:) s
52.2 430 M
(foo.oc:line 6: [foo2.h, line 6. last line]) s
25.8 418 M (80:) s
52.2 418 M
(token 6.1: [foo2.h,]) s
25.8 406 M (81:) s
52.2 406 M
(token 6.2: [line]) s
25.8 394 M (82:) s
52.2 394 M
(token 6.3: [6.]) s
25.8 382 M (83:) s
52.2 382 M
(token 6.4: [last]) s
25.8 370 M (84:) s
52.2 370 M
(token 6.5: [line]) s
25.8 358 M (85:) s
52.2 358 M
(foo.oc:line 7: [# 7 "foo.oc" 2]) s
25.8 346 M (86:) s
52.2 346 M
(DIRECTIVE: line 7 file "foo.oc") s
25.8 334 M (87:) s
52.2 334 M
(foo.oc:line 7: [              on line 7]) s
25.8 322 M (88:) s
52.2 322 M
(token 7.1: [on]) s
25.8 310 M (89:) s
52.2 310 M
(token 7.2: [line]) s
25.8 298 M (90:) s
52.2 298 M
(token 7.3: [7]) s
25.8 286 M (91:) s
52.2 286 M
(foo.oc:line 8: ["foo1" + "foo2";]) s
25.8 274 M (92:) s
52.2 274 M
(token 8.1: ["foo1"]) s
25.8 262 M (93:) s
52.2 262 M
(token 8.2: [+]) s
25.8 250 M (94:) s
52.2 250 M
(token 8.3: ["foo2";]) s
25.8 238 M (95:) s
52.2 238 M
(foo.oc:line 9: [foo.oc, line 9, last line.]) s
25.8 226 M (96:) s
52.2 226 M
(token 9.1: [foo.oc,]) s
25.8 214 M (97:) s
52.2 214 M
(token 9.2: [line]) s
25.8 202 M (98:) s
52.2 202 M
(token 9.3: [9,]) s
25.8 190 M (99:) s
52.2 190 M
(token 9.4: [last]) s
19.2 178 M (100:) s
52.2 178 M
(token 9.5: [line.]) s
19.2 166 M (101:) s
52.2 166 M
(==13061== ) s
19.2 154 M (102:) s
52.2 154 M
(==13061== HEAP SUMMARY:) s
19.2 142 M (103:) s
52.2 142 M
(==13061==     in use at exit: 0 bytes in 0 blocks) s
19.2 130 M (104:) s
52.2 130 M
(==13061==   total heap usage: 3 allocs, 3 frees, 372 bytes allocated) s
19.2 118 M (105:) s
52.2 118 M
(==13061== ) s
19.2 106 M (106:) s
52.2 106 M
(==13061== All heap blocks were freed -- no leaks are possible) s
19.2 94 M (107:) s
52.2 94 M
(==13061== ) s
19.2 82 M (108:) s
52.2 82 M
(==13061== For counts of detected and suppressed errors, rerun with: -v) s
19.2 70 M (109:) s
52.2 70 M
(==13061== ERROR SUMMARY: 0 errors from 0 contexts \(suppressed: 0 from 0\)) s
_R
S
%%Trailer
%%Pages: 6
%%DocumentNeededResources: font Times-Roman Courier-Bold Times-Bold 
%%EOF
